*** Darwin 22x15 ***
Turn = 0.
  012345678901234
0 ...............
1 ...............
2 ...............
3 ...............
4 ...............
5 ...............
6 ...............
7 ...............
8 ...............
9 ...............
0 ...............
1 ...............
2 ...............
3 ...............
4 ...............
5 ...............
6 .....r.........
7 ...............
8 ...............
9 ...............
0 ...............
1 ...f...........

Turn = 2.
  012345678901234
0 ...............
1 ...............
2 ...............
3 ...............
4 ...............
5 ...............
6 ...............
7 ...............
8 ...............
9 ...............
0 ...............
1 ...............
2 ...............
3 ...............
4 ...............
5 ...............
6 ...............
7 ...............
8 .....r.........
9 ...............
0 ...............
1 ...f...........

Turn = 4.
  012345678901234
0 ...............
1 ...............
2 ...............
3 ...............
4 ...............
5 ...............
6 ...............
7 ...............
8 ...............
9 ...............
0 ...............
1 ...............
2 ...............
3 ...............
4 ...............
5 ...............
6 ...............
7 ...............
8 ...............
9 ...............
0 .....r.........
1 ...f...........

Turn = 6.
  012345678901234
0 ...............
1 ...............
2 ...............
3 ...............
4 ...............
5 ...............
6 ...............
7 ...............
8 ...............
9 ...............
0 ...............
1 ...............
2 ...............
3 ...............
4 ...............
5 ...............
6 ...............
7 ...............
8 ...............
9 ...............
0 ...............
1 ...f.r.........

*** Darwin 41x13 ***
Turn = 0.
  0123456789012
0 .............
1 .............
2 .............
3 .............
4 .............
5 .............
6 .............
7 .t...........
8 .............
9 .............
0 .............
1 .............
2 .....r.......
3 .............
4 .............
5 .....t.......
6 .............
7 .............
8 .............
9 .......h.....
0 .............
1 .............
2 .............
3 ...h.........
4 .............
5 .............
6 .............
7 .............
8 .............
9 .............
0 .............
1 .............
2 .............
3 .............
4 .............
5 .............
6 .............
7 .............
8 .............
9 .............
0 .............

*** Darwin 26x38 ***
Turn = 0.
  01234567890123456789012345678901234567
0 ......................................
1 ......................................
2 ......................................
3 ......................................
4 ......................................
5 ......................................
6 ......................................
7 ......................................
8 ......................t...............
9 ......................................
0 ......................................
1 ......................................
2 ......................................
3 ......................................
4 ......................................
5 f..........f..........................
6 ......................................
7 ......................................
8 ......................................
9 ......................................
0 ......................................
1 ......................................
2 ......................................
3 ......................................
4 ......................................
5 ......................................

*** Darwin 12x29 ***
Turn = 0.
  01234567890123456789012345678
0 .............................
1 .............................
2 .............................
3 .............................
4 .............................
5 .............................
6 .............................
7 .............................
8 .............................
9 ....t........................
0 .............................
1 ............................r

Turn = 7.
  01234567890123456789012345678
0 .............................
1 .............................
2 .............................
3 .............................
4 .............................
5 .............................
6 .............................
7 .............................
8 .............................
9 ....t........................
0 .............................
1 .....................r.......

*** Darwin 36x50 ***
Turn = 0.
  01234567890123456789012345678901234567890123456789
0 .........................f........................
1 ..................................................
2 ..................................................
3 ..................................................
4 ..................................................
5 ..................................................
6 ..................................................
7 ..................................................
8 ..................................................
9 ..................................................
0 ..................................................
1 ..................................................
2 ..................................................
3 ............................r.....................
4 ..................................................
5 ..................................................
6 .........h........................................
7 ..................................................
8 ..................................................
9 ..................................................
0 t.................................................
1 ..................................................
2 ..................................................
3 ................................f.................
4 ..................................................
5 ..................................................
6 ..................................................
7 ..................................................
8 ..................................................
9 ..................................................
0 ..................................................
1 ..................................................
2 ..................................................
3 ..................................................
4 ..................................................
5 ..................................................

*** Darwin 11x9 ***
Turn = 0.
  012345678
0 .........
1 .........
2 .........
3 .........
4 ......r..
5 .........
6 .........
7 .........
8 .........
9 .........
0 f........

Turn = 5.
  012345678
0 ......r..
1 .........
2 .........
3 .........
4 .........
5 .........
6 .........
7 .........
8 .........
9 .........
0 f........

*** Darwin 34x29 ***
Turn = 0.
  01234567890123456789012345678
0 .............................
1 .............................
2 .......t.....................
3 .............................
4 ..f..........................
5 .............................
6 .............................
7 .............................
8 .............................
9 .............................
0 .............................
1 .............................
2 .............................
3 .............................
4 .............................
5 .............................
6 .............................
7 .............................
8 .....f.......................
9 ......................r......
0 .............................
1 .............................
2 .............................
3 .............................
4 .............................
5 .............................
6 ............................f
7 .............................
8 .............................
9 .............................
0 .............................
1 .............................
2 .............................
3 .............................

*** Darwin 5x39 ***
Turn = 0.
  012345678901234567890123456789012345678
0 ...................................r...
1 ............r..........................
2 .....r.................................
3 .......................h...............
4 .......................................

Turn = 5.
  012345678901234567890123456789012345678
0 ...r..................................r
1 .......r...............................
2 .......................................
3 .......................................
4 .......................h...............

*** Darwin 27x46 ***
Turn = 0.
  0123456789012345678901234567890123456789012345
0 ..............................................
1 ..............................................
2 ..t...........................................
3 ..............................................
4 ..............................................
5 ..............................................
6 ..............................................
7 ..............................................
8 ..............................................
9 ......................t....................t..
0 ........................................h.....
1 ..............................................
2 ..............................................
3 ..............................................
4 ..............................................
5 ..............................................
6 ..............................................
7 ..............................................
8 ..............................................
9 ..............................................
0 ..............................................
1 ..............................................
2 ...........................h..................
3 ..............................................
4 ..............................................
5 ..............................................
6 ..............................................

*** Darwin 25x20 ***
Turn = 0.
  01234567890123456789
0 ....................
1 ....................
2 ....................
3 ....................
4 ....................
5 ....................
6 ....................
7 ....................
8 ....................
9 ....................
0 ....................
1 ....................
2 ....................
3 .t..................
4 ....................
5 ....................
6 ....................
7 ....................
8 ....................
9 ....................
0 ....................
1 ....................
2 ....................
3 ....................
4 ....................

Turn = 1.
  01234567890123456789
0 ....................
1 ....................
2 ....................
3 ....................
4 ....................
5 ....................
6 ....................
7 ....................
8 ....................
9 ....................
0 ....................
1 ....................
2 ....................
3 .t..................
4 ....................
5 ....................
6 ....................
7 ....................
8 ....................
9 ....................
0 ....................
1 ....................
2 ....................
3 ....................
4 ....................

Turn = 2.
  01234567890123456789
0 ....................
1 ....................
2 ....................
3 ....................
4 ....................
5 ....................
6 ....................
7 ....................
8 ....................
9 ....................
0 ....................
1 ....................
2 ....................
3 .t..................
4 ....................
5 ....................
6 ....................
7 ....................
8 ....................
9 ....................
0 ....................
1 ....................
2 ....................
3 ....................
4 ....................

Turn = 3.
  01234567890123456789
0 ....................
1 ....................
2 ....................
3 ....................
4 ....................
5 ....................
6 ....................
7 ....................
8 ....................
9 ....................
0 ....................
1 ....................
2 ....................
3 .t..................
4 ....................
5 ....................
6 ....................
7 ....................
8 ....................
9 ....................
0 ....................
1 ....................
2 ....................
3 ....................
4 ....................

Turn = 4.
  01234567890123456789
0 ....................
1 ....................
2 ....................
3 ....................
4 ....................
5 ....................
6 ....................
7 ....................
8 ....................
9 ....................
0 ....................
1 ....................
2 ....................
3 .t..................
4 ....................
5 ....................
6 ....................
7 ....................
8 ....................
9 ....................
0 ....................
1 ....................
2 ....................
3 ....................
4 ....................

Turn = 5.
  01234567890123456789
0 ....................
1 ....................
2 ....................
3 ....................
4 ....................
5 ....................
6 ....................
7 ....................
8 ....................
9 ....................
0 ....................
1 ....................
2 ....................
3 .t..................
4 ....................
5 ....................
6 ....................
7 ....................
8 ....................
9 ....................
0 ....................
1 ....................
2 ....................
3 ....................
4 ....................

Turn = 6.
  01234567890123456789
0 ....................
1 ....................
2 ....................
3 ....................
4 ....................
5 ....................
6 ....................
7 ....................
8 ....................
9 ....................
0 ....................
1 ....................
2 ....................
3 .t..................
4 ....................
5 ....................
6 ....................
7 ....................
8 ....................
9 ....................
0 ....................
1 ....................
2 ....................
3 ....................
4 ....................

*** Darwin 38x14 ***
Turn = 0.
  01234567890123
0 ..............
1 ..............
2 ..............
3 ..............
4 ..............
5 ..............
6 ..............
7 ..............
8 ..............
9 ..............
0 ..............
1 ..............
2 ..............
3 ..............
4 ..........f...
5 ..............
6 ..............
7 ..............
8 ..............
9 ..............
0 ..............
1 ..............
2 ..............
3 ..............
4 ..............
5 ..............
6 ..............
7 ..............
8 ..............
9 ..............
0 ..............
1 ..............
2 ..............
3 ..............
4 ..............
5 ..............
6 ..............
7 ..............

Turn = 7.
  01234567890123
0 ..............
1 ..............
2 ..............
3 ..............
4 ..............
5 ..............
6 ..............
7 ..............
8 ..............
9 ..............
0 ..............
1 ..............
2 ..............
3 ..............
4 ..........f...
5 ..............
6 ..............
7 ..............
8 ..............
9 ..............
0 ..............
1 ..............
2 ..............
3 ..............
4 ..............
5 ..............
6 ..............
7 ..............
8 ..............
9 ..............
0 ..............
1 ..............
2 ..............
3 ..............
4 ..............
5 ..............
6 ..............
7 ..............

*** Darwin 33x46 ***
Turn = 0.
  0123456789012345678901234567890123456789012345
0 ..............................................
1 ..............................................
2 ..............................................
3 ..............................................
4 ..............................................
5 ..............................................
6 .................................t............
7 ..............................................
8 ..............................................
9 ..............................................
0 .............................h................
1 ..............................................
2 ..............................................
3 ..............................................
4 ..............................................
5 ..............................................
6 ..............................................
7 ..............................................
8 ..............................................
9 ..............................................
0 ..............................................
1 ..............................................
2 ..............................................
3 ..............................................
4 ....................t.........................
5 ..............................................
6 ..............................................
7 ..............................................
8 ..............................................
9 ..............................................
0 ..............................................
1 ..............................................
2 ..............................................

*** Darwin 49x46 ***
Turn = 0.
  0123456789012345678901234567890123456789012345
0 ............t...f.............................
1 ..............................................
2 ..............................................
3 ..............................................
4 ..............................................
5 ..............................................
6 ..............................................
7 ..............................................
8 ..............................................
9 ..............................................
0 ..............................................
1 ..............................................
2 ..............................................
3 ..............................................
4 ..............................................
5 .............................................h
6 ..............................................
7 ...............h..............................
8 ..............................................
9 ..............................................
0 ..............................................
1 ..............................................
2 ..............................................
3 ..............................................
4 ..............................................
5 ..............................................
6 ..............................................
7 ..............................................
8 ..............................................
9 ..............................................
0 ..............................................
1 ..............................................
2 ..............................................
3 .........r....................................
4 ..............................................
5 ..............................................
6 ..............................................
7 ..............................................
8 ..............................................
9 ..............................................
0 ..............................................
1 ..............................................
2 ..............................................
3 ..............................................
4 ..............................................
5 ..............................................
6 ..............................................
7 ..............................................
8 ..............................................

Turn = 6.
  0123456789012345678901234567890123456789012345
0 ............t...f.............................
1 ..............................................
2 ..............................................
3 ..............................................
4 ..............................................
5 ..............................................
6 ..............................................
7 ..............................................
8 ..............................................
9 ..............................................
0 ..............................................
1 ..............................................
2 ..............................................
3 ..............................................
4 ..............................................
5 .......................................h......
6 ..............................................
7 .....................h........................
8 ..............................................
9 ..............................................
0 ..............................................
1 ..............................................
2 ..............................................
3 ..............................................
4 ..............................................
5 ..............................................
6 ..............................................
7 ..............................................
8 ..............................................
9 ..............................................
0 ..............................................
1 ..............................................
2 ..............................................
3 ..............................................
4 ..............................................
5 ..............................................
6 ..............................................
7 ..............................................
8 ..............................................
9 .........r....................................
0 ..............................................
1 ..............................................
2 ..............................................
3 ..............................................
4 ..............................................
5 ..............................................
6 ..............................................
7 ..............................................
8 ..............................................

*** Darwin 28x27 ***
Turn = 0.
  012345678901234567890123456
0 ...........................
1 ...........................
2 ...........................
3 ...........................
4 ...........................
5 ...........................
6 ....................r......
7 ...........................
8 ...........................
9 ...........................
0 ...........................
1 ...........................
2 ............t..............
3 ...........................
4 ........................h..
5 ..t........................
6 ...........................
7 ...........................
8 ...........................
9 ...........................
0 ...........................
1 ...........................
2 ...........................
3 ...........................
4 ...........................
5 ...........................
6 ...........................
7 ...........................

Turn = 4.
  012345678901234567890123456
0 ...........................
1 ...........................
2 ...........................
3 ...........................
4 ...........................
5 ...........................
6 ........................r..
7 ...........................
8 ...........................
9 ...........................
0 ...........................
1 ...........................
2 ............t..............
3 ...........................
4 ....................h......
5 ..t........................
6 ...........................
7 ...........................
8 ...........................
9 ...........................
0 ...........................
1 ...........................
2 ...........................
3 ...........................
4 ...........................
5 ...........................
6 ...........................
7 ...........................

*** Darwin 22x29 ***
Turn = 0.
  01234567890123456789012345678
0 .............................
1 .............................
2 .............t...............
3 .............................
4 ...f.........................
5 .............................
6 .............................
7 .............................
8 .............................
9 ......t......................
0 .............................
1 .............................
2 .............................
3 ................r............
4 .............................
5 .............................
6 .............................
7 .............................
8 .............................
9 .............................
0 .............................
1 .............................

Turn = 5.
  01234567890123456789012345678
0 .............................
1 .............................
2 .............t...............
3 .............................
4 ...f.........................
5 .............................
6 .............................
7 .............................
8 ................r............
9 ......t......................
0 .............................
1 .............................
2 .............................
3 .............................
4 .............................
5 .............................
6 .............................
7 .............................
8 .............................
9 .............................
0 .............................
1 .............................

Turn = 10.
  01234567890123456789012345678
0 .............................
1 .............................
2 .............t...............
3 ................r............
4 ...f.........................
5 .............................
6 .............................
7 .............................
8 .............................
9 ......t......................
0 .............................
1 .............................
2 .............................
3 .............................
4 .............................
5 .............................
6 .............................
7 .............................
8 .............................
9 .............................
0 .............................
1 .............................

*** Darwin 43x13 ***
Turn = 0.
  0123456789012
0 .............
1 .............
2 .............
3 .............
4 .............
5 .............
6 .............
7 .............
8 .............
9 .............
0 .............
1 .............
2 .............
3 .............
4 .............
5 .............
6 .............
7 .............
8 .............
9 .............
0 .............
1 .............
2 .............
3 .............
4 .............
5 .............
6 .............
7 .............
8 .............
9 .............
0 .............
1 .............
2 .............
3 .............
4 .............
5 .............
6 .............
7 .............
8 .............
9 .............
0 .............
1 .............
2 .....r.......

*** Darwin 28x11 ***
Turn = 0.
  01234567890
0 ...h......h
1 ...........
2 ...........
3 ...........
4 ...........
5 ...........
6 ........t..
7 ...........
8 ...........
9 ..........t
0 ...........
1 ...........
2 ...........
3 ...........
4 ...........
5 ...........
6 ...........
7 ..........t
8 ...........
9 ...........
0 ...........
1 ...........
2 ...........
3 ...........
4 ...........
5 ...........
6 ...........
7 ...........

*** Darwin 10x36 ***
Turn = 0.
  012345678901234567890123456789012345
0 ....................................
1 ....................................
2 ....................................
3 ....................................
4 ....................................
5 ....................................
6 ....................................
7 ....................................
8 ........h........................f..
9 ....................................

Turn = 5.
  012345678901234567890123456789012345
0 ....................................
1 ....................................
2 ....................................
3 ....................................
4 ....................................
5 ....................................
6 ....................................
7 ....................................
8 .............h...................f..
9 ....................................

*** Darwin 13x42 ***
Turn = 0.
  012345678901234567890123456789012345678901
0 ..........................................
1 ..........................................
2 ..........................................
3 ..........................................
4 ..........................................
5 ..........................................
6 ....................f.....................
7 ..........................................
8 ..........................................
9 ..........................................
0 .................h........................
1 ..........................................
2 ..........................................

Turn = 4.
  012345678901234567890123456789012345678901
0 ..........................................
1 ..........................................
2 ..........................................
3 ..........................................
4 ..........................................
5 ..........................................
6 ....................f.....................
7 ..........................................
8 ..........................................
9 ..........................................
0 ..........................................
1 ..........................................
2 .................h........................

Turn = 8.
  012345678901234567890123456789012345678901
0 ..........................................
1 ..........................................
2 ..........................................
3 ..........................................
4 ..........................................
5 ..........................................
6 ....................f.....................
7 ..........................................
8 ..........................................
9 ..........................................
0 ..........................................
1 ..........................................
2 .................h........................

*** Darwin 21x14 ***
Turn = 0.
  01234567890123
0 ........r.....
1 ..............
2 ..............
3 ..r...........
4 ..............
5 ..............
6 ..............
7 ..............
8 ..............
9 ..............
0 ..............
1 ..............
2 ..............
3 ..............
4 .............t
5 ..............
6 ..............
7 ..............
8 ...f..........
9 ..............
0 ..............

*** Darwin 39x44 ***
Turn = 0.
  01234567890123456789012345678901234567890123
0 ............................................
1 ............................................
2 ............................................
3 ............................................
4 ............................................
5 ............................................
6 ............................................
7 ............................................
8 ............................................
9 ............................................
0 ............................................
1 ............................................
2 ............................................
3 ............................................
4 ............................................
5 ............................................
6 ............................................
7 ............................................
8 ............................................
9 ............................................
0 ............................................
1 ............................................
2 ............................................
3 ............................................
4 ............................................
5 ............................................
6 ............................................
7 ............................................
8 ............................................
9 ............................................
0 ............................................
1 ............................................
2 ............................................
3 ............................................
4 ................r...........................
5 ............................................
6 ............................................
7 ............................................
8 ............................................

*** Darwin 7x24 ***
Turn = 0.
  012345678901234567890123
0 ...................h....
1 ..r...........f.........
2 .......h................
3 ........................
4 ........................
5 ........................
6 ........f...............

Turn = 3.
  012345678901234567890123
0 ...................h....
1 .....r........f.........
2 ........................
3 ........................
4 ........................
5 .......h................
6 ........f...............

*** Darwin 28x25 ***
Turn = 0.
  0123456789012345678901234
0 .........................
1 .........................
2 .........................
3 .........................
4 .........................
5 .........................
6 .........................
7 .........................
8 .........................
9 .........................
0 .........................
1 .........................
2 .........................
3 .........................
4 .........................
5 .........................
6 .........................
7 .........................
8 .........................
9 .........................
0 .........................
1 .........................
2 .........................
3 .........................
4 .........................
5 .........................
6 ........t................
7 .........................

Turn = 7.
  0123456789012345678901234
0 .........................
1 .........................
2 .........................
3 .........................
4 .........................
5 .........................
6 .........................
7 .........................
8 .........................
9 .........................
0 .........................
1 .........................
2 .........................
3 .........................
4 .........................
5 .........................
6 .........................
7 .........................
8 .........................
9 .........................
0 .........................
1 .........................
2 .........................
3 .........................
4 .........................
5 .........................
6 ........t................
7 .........................

*** Darwin 33x3 ***
Turn = 0.
  012
0 ...
1 ...
2 ...
3 ...
4 ...
5 ...
6 ...
7 ...
8 ...
9 ...
0 ...
1 ...
2 ...
3 ...
4 ...
5 ...
6 ...
7 ...
8 ...
9 ...
0 ...
1 ...
2 ...
3 ...
4 t..
5 ...
6 ...
7 ...
8 ...
9 .f.
0 ...
1 ...
2 ...

Turn = 2.
  012
0 ...
1 ...
2 ...
3 ...
4 ...
5 ...
6 ...
7 ...
8 ...
9 ...
0 ...
1 ...
2 ...
3 ...
4 ...
5 ...
6 ...
7 ...
8 ...
9 ...
0 ...
1 ...
2 ...
3 ...
4 t..
5 ...
6 ...
7 ...
8 ...
9 .f.
0 ...
1 ...
2 ...

Turn = 4.
  012
0 ...
1 ...
2 ...
3 ...
4 ...
5 ...
6 ...
7 ...
8 ...
9 ...
0 ...
1 ...
2 ...
3 ...
4 ...
5 ...
6 ...
7 ...
8 ...
9 ...
0 ...
1 ...
2 ...
3 ...
4 t..
5 ...
6 ...
7 ...
8 ...
9 .f.
0 ...
1 ...
2 ...

Turn = 6.
  012
0 ...
1 ...
2 ...
3 ...
4 ...
5 ...
6 ...
7 ...
8 ...
9 ...
0 ...
1 ...
2 ...
3 ...
4 ...
5 ...
6 ...
7 ...
8 ...
9 ...
0 ...
1 ...
2 ...
3 ...
4 t..
5 ...
6 ...
7 ...
8 ...
9 .f.
0 ...
1 ...
2 ...

Turn = 8.
  012
0 ...
1 ...
2 ...
3 ...
4 ...
5 ...
6 ...
7 ...
8 ...
9 ...
0 ...
1 ...
2 ...
3 ...
4 ...
5 ...
6 ...
7 ...
8 ...
9 ...
0 ...
1 ...
2 ...
3 ...
4 t..
5 ...
6 ...
7 ...
8 ...
9 .f.
0 ...
1 ...
2 ...

*** Darwin 31x16 ***
Turn = 0.
  0123456789012345
0 ................
1 ................
2 ................
3 ................
4 ................
5 ................
6 ................
7 ................
8 ................
9 ................
0 ................
1 ................
2 ................
3 ...............f
4 ................
5 ................
6 ................
7 ................
8 ................
9 ................
0 ................
1 ................
2 ................
3 ................
4 ................
5 ................
6 ................
7 ................
8 ................
9 ................
0 ................

*** Darwin 37x21 ***
Turn = 0.
  012345678901234567890
0 .....................
1 ............f........
2 .....................
3 .....................
4 .................f...
5 ..........t..........
6 .....................
7 .....................
8 .....................
9 .....................
0 .....................
1 .....................
2 .....................
3 .....................
4 .....................
5 .....................
6 .....................
7 ..............r......
8 .....................
9 .....................
0 .....................
1 .....................
2 .....................
3 .....................
4 .....................
5 .....................
6 .....................
7 .....................
8 .....................
9 .....................
0 .....................
1 .....................
2 .....................
3 .....................
4 .....................
5 ...............r.....
6 .....................

Turn = 4.
  012345678901234567890
0 .....................
1 ............f........
2 .....................
3 .....................
4 .................f...
5 ..........t..........
6 .....................
7 .....................
8 .....................
9 .....................
0 .....................
1 .....................
2 .....................
3 .....................
4 .....................
5 .....................
6 .....................
7 ..................r..
8 .....................
9 .....................
0 .....................
1 .....................
2 .....................
3 .....................
4 .....................
5 .....................
6 .....................
7 .....................
8 .....................
9 .....................
0 .....................
1 .....................
2 .....................
3 .....................
4 .....................
5 ...................r.
6 .....................

*** Darwin 18x8 ***
Turn = 0.
  01234567
0 ........
1 ........
2 ........
3 ...r....
4 ........
5 ........
6 ........
7 ........
8 ........
9 ........
0 ........
1 ........
2 ........
3 ..f.....
4 ........
5 ........
6 ....h...
7 ........

Turn = 8.
  01234567
0 .......r
1 ........
2 ........
3 ........
4 ........
5 ........
6 ........
7 ........
8 ........
9 ........
0 ........
1 ........
2 ........
3 ..f.....
4 ........
5 ........
6 .......h
7 ........

*** Darwin 5x46 ***
Turn = 0.
  0123456789012345678901234567890123456789012345
0 ..............................................
1 ...........................r..................
2 ........................................t.....
3 ..............................................
4 ....................h.............r...........

Turn = 3.
  0123456789012345678901234567890123456789012345
0 ..............................................
1 ..............................r...r...........
2 ........................................t.....
3 ..............................................
4 .................h............................

*** Darwin 20x47 ***
Turn = 0.
  01234567890123456789012345678901234567890123456
0 ...............................................
1 ...............................................
2 ...............................................
3 ...............................................
4 ...............................................
5 ...............................................
6 ...............................................
7 ...............................................
8 ...............................................
9 ...............................................
0 ...................h...........................
1 ...............................................
2 ...............................................
3 ...............................................
4 ...............................................
5 ...............t...............................
6 ...............................................
7 ...............................................
8 ...............................................
9 ................................h..............
