*** Darwin 17x3 ***
Turn = 0.
  012
0 ...
1 ...
2 ...
3 ...
4 ...
5 ...
6 ...
7 .t.
8 ...
9 ..t
0 ...
1 ...
2 ..h
3 .r.
4 .r.
5 ...
6 .rr

Turn = 3.
  012
0 ...
1 ...
2 ...
3 ...
4 ...
5 ...
6 ...
7 .t.
8 ...
9 ..t
0 ...
1 ...
2 h..
3 r..
4 r..
5 ...
6 rr.

Turn = 6.
  012
0 ...
1 ...
2 ...
3 ...
4 ...
5 ...
6 ...
7 .t.
8 ...
9 ..t
0 ...
1 r..
2 ...
3 r..
4 ..r
5 r..
6 ..r

*** Darwin 9x6 ***
Turn = 0.
  012345
0 .....r
1 ...h..
2 .....t
3 ......
4 ......
5 ..r...
6 t.....
7 t.....
8 ......

*** Darwin 13x19 ***
Turn = 0.
  0123456789012345678
0 ..........hr.......
1 ...................
2 ...................
3 ...........t.......
4 .....f.............
5 ...................
6 .......t...r.......
7 ...................
8 ...................
9 ...................
0 ...................
1 ...................
2 ........h.t.r......

*** Darwin 5x4 ***
Turn = 0.
  0123
0 ....
1 ....
2 ....
3 ..f.
4 ....

Turn = 1.
  0123
0 ....
1 ....
2 ....
3 ..f.
4 ....

Turn = 2.
  0123
0 ....
1 ....
2 ....
3 ..f.
4 ....

Turn = 3.
  0123
0 ....
1 ....
2 ....
3 ..f.
4 ....

Turn = 4.
  0123
0 ....
1 ....
2 ....
3 ..f.
4 ....

Turn = 5.
  0123
0 ....
1 ....
2 ....
3 ..f.
4 ....

Turn = 6.
  0123
0 ....
1 ....
2 ....
3 ..f.
4 ....

Turn = 7.
  0123
0 ....
1 ....
2 ....
3 ..f.
4 ....

Turn = 8.
  0123
0 ....
1 ....
2 ....
3 ..f.
4 ....

Turn = 9.
  0123
0 ....
1 ....
2 ....
3 ..f.
4 ....

*** Darwin 16x8 ***
Turn = 0.
  01234567
0 .....h..
1 ........
2 ........
3 ........
4 ......f.
5 .......r
6 ........
7 ........
8 ........
9 ........
0 ........
1 ........
2 ...r...r
3 ........
4 ..f.....
5 .t......

Turn = 6.
  01234567
0 h.......
1 ........
2 ........
3 ........
4 ......f.
5 ........
6 ........
7 ........
8 ........
9 ........
0 ........
1 .......r
2 ........
3 ........
4 ..f.....
5 .rr....r

*** Darwin 14x2 ***
Turn = 0.
  01
0 hh
1 ..
2 t.
3 .f
4 ..
5 ..
6 ..
7 ..
8 .t
9 ..
0 ..
1 f.
2 r.
3 f.

*** Darwin 12x19 ***
Turn = 0.
  0123456789012345678
0 ...................
1 ...................
2 t..................
3 .............t....t
4 .................t.
5 .............f.....
6 ...................
7 ...................
8 .....h.......t.....
9 ...h...............
0 ...................
1 ...................

*** Darwin 16x8 ***
Turn = 0.
  01234567
0 ........
1 ........
2 ........
3 ...t....
4 ........
5 ........
6 ........
7 ........
8 t.......
9 ..f.....
0 ....f...
1 ........
2 ........
3 .......h
4 ........
5 ........

Turn = 2.
  01234567
0 ........
1 ........
2 ........
3 ...t....
4 ........
5 ........
6 ........
7 ........
8 t.......
9 ..f.....
0 ....f...
1 ........
2 ........
3 .......h
4 ........
5 ........

Turn = 4.
  01234567
0 ........
1 ........
2 ........
3 ...t....
4 ........
5 ........
6 ........
7 ........
8 t.......
9 ..f.....
0 ....f...
1 ........
2 ........
3 .......h
4 ........
5 ........

*** Darwin 4x18 ***
Turn = 0.
  012345678901234567
0 .......rf....t....
1 .......h....h...r.
2 ..................
3 ..................

Turn = 2.
  012345678901234567
0 ........f....t....
1 .......r.r.......r
2 ..................
3 ............h.....

Turn = 4.
  012345678901234567
0 ........f....t....
1 ...........r......
2 ..................
3 .......r....h....r

Turn = 6.
  012345678901234567
0 ........f....t....
1 .............r....
2 ..................
3 ........r...h...r.

Turn = 8.
  012345678901234567
0 ........f....t....
1 ...............r..
2 ..................
3 ..........r.h.r...

Turn = 10.
  012345678901234567
0 ........f....t....
1 .................r
2 ..................
3 ...........rrr....

*** Darwin 12x20 ***
Turn = 0.
  01234567890123456789
0 ....................
1 ....................
2 ............t......t
3 t...................
4 ............t.....f.
5 ....................
6 ...................r
7 ....................
8 ....................
9 ....................
0 ...............h....
1 .................h..

*** Darwin 17x8 ***
Turn = 0.
  01234567
0 ........
1 ........
2 ........
3 ........
4 ........
5 .......t
6 .t......
7 h.......
8 .....t..
9 .t......
0 ........
1 ........
2 .....h..
3 ........
4 ........
5 ........
6 ........

Turn = 2.
  01234567
0 ........
1 ........
2 ........
3 ........
4 ........
5 .......t
6 .t......
7 h.......
8 .....t..
9 .t......
0 .....h..
1 ........
2 ........
3 ........
4 ........
5 ........
6 ........

Turn = 4.
  01234567
0 ........
1 ........
2 ........
3 ........
4 ........
5 .......t
6 .t......
7 h.......
8 .....t..
9 .t...h..
0 ........
1 ........
2 ........
3 ........
4 ........
5 ........
6 ........

Turn = 6.
  01234567
0 ........
1 ........
2 ........
3 ........
4 ........
5 .......t
6 .t......
7 h.......
8 .....t..
9 .t...h..
0 ........
1 ........
2 ........
3 ........
4 ........
5 ........
6 ........

*** Darwin 1x12 ***
Turn = 0.
  012345678901
0 .r.....ft.h.

Turn = 2.
  012345678901
0 ...r...ft..h

Turn = 4.
  012345678901
0 .....r.tt..h

Turn = 6.
  012345678901
0 ......rrt..h

Turn = 8.
  012345678901
0 ......r.r.rh

*** Darwin 2x16 ***
Turn = 0.
  0123456789012345
0 h...........hhtf
1 ...r.......f..ff

Turn = 3.
  0123456789012345
0 ....r....h...ttf
1 h..........f..tf

Turn = 6.
  0123456789012345
0 ......rr.....ttt
1 h..........f..tt

Turn = 9.
  0123456789012345
0 .............ttt
1 h.....rr...f..tt

*** Darwin 13x11 ***
Turn = 0.
  01234567890
0 ...........
1 .........h.
2 ...........
3 .........t.
4 ...........
5 .f.rf......
6 ...........
7 ...........
8 ....t.....f
9 ...........
0 ...........
1 ...........
2 ....h......

*** Darwin 5x4 ***
Turn = 0.
  0123
0 ...h
1 .t.r
2 ....
3 .f..
4 ..tf

Turn = 6.
  0123
0 r..h
1 ....
2 .r..
3 ....
4 .rtt

*** Darwin 4x5 ***
Turn = 0.
  01234
0 .r...
1 .....
2 h.r..
3 ....t

*** Darwin 16x1 ***
Turn = 0.
  0
0 .
1 .
2 .
3 h
4 .
5 .
6 f
7 h
8 .
9 .
0 .
1 .
2 .
3 .
4 t
5 .

*** Darwin 20x2 ***
Turn = 0.
  01
0 ..
1 ..
2 ..
3 ..
4 .f
5 .f
6 ..
7 ..
8 ..
9 ..
0 ..
1 ..
2 ..
3 ..
4 ..
5 .r
6 ..
7 ff
8 ..
9 r.

Turn = 4.
  01
0 ..
1 ..
2 ..
3 ..
4 .f
5 .f
6 ..
7 ..
8 ..
9 ..
0 ..
1 ..
2 ..
3 ..
4 ..
5 ..
6 ..
7 fr
8 .r
9 r.

*** Darwin 10x3 ***
Turn = 0.
  012
0 ...
1 ...
2 ...
3 ...
4 ...
5 ...
6 ..h
7 ...
8 ...
9 ...

*** Darwin 4x8 ***
Turn = 0.
  01234567
0 ........
1 .h......
2 ........
3 .h......

Turn = 9.
  01234567
0 ........
1 h.......
2 ........
3 .......h

*** Darwin 15x15 ***
Turn = 0.
  012345678901234
0 ...............
1 .........f.....
2 ...............
3 f..............
4 ...............
5 .hf............
6 ..............t
7 ...............
8 ..........h....
9 ...........h.h.
0 ..f....t.......
1 ...............
2 ...............
3 ...............
4 ...............

Turn = 10.
  012345678901234
0 ..........hh.h.
1 .........f.....
2 ...............
3 f..............
4 ...............
5 h.f............
6 ..............t
7 ...............
8 ...............
9 ...............
0 ..f....t.......
1 ...............
2 ...............
3 ...............
4 ...............
