29

9 9
10
f 7 1 e
f 0 2 s
r 3 6 e
f 3 7 n
h 2 5 n
f 0 7 n
r 0 8 e
h 2 8 s
f 6 2 e
h 0 1 w
57 43

9 1
2
t 1 0 e
h 4 0 n
25 39

20 9
5
t 0 2 s
t 11 4 e
f 6 4 s
h 7 2 n
t 19 0 n
31 49

20 16
9
f 1 15 w
f 13 11 w
h 3 13 s
r 6 13 w
t 12 11 n
f 3 9 s
f 15 2 w
t 15 15 n
r 11 13 w
86 31

14 19
9
f 0 13 w
t 0 11 e
r 11 9 s
f 8 2 w
r 10 12 e
t 5 7 s
h 1 12 w
f 1 5 w
r 10 5 e
45 92

15 16
10
f 0 13 w
t 8 13 w
t 7 7 n
f 6 9 s
t 7 5 e
t 4 13 e
r 9 0 n
r 14 2 w
h 8 10 e
t 4 6 s
19 33

18 9
3
r 1 5 w
t 1 8 s
h 13 1 s
99 92

3 20
10
h 2 0 e
t 2 10 w
h 2 7 w
f 0 4 e
f 1 16 e
t 1 9 s
f 1 13 w
r 2 2 s
r 0 13 n
r 1 12 w
63 56

4 14
2
t 0 3 s
t 3 6 n
63 9

3 2
5
f 1 1 e
h 2 0 w
t 0 1 e
h 0 0 w
t 1 0 s
25 86

16 15
4
h 4 4 s
t 3 4 n
f 12 12 n
h 1 8 e
21 82

11 17
4
h 3 0 s
r 4 16 e
r 4 15 e
r 8 14 e
63 7

4 3
7
t 0 0 s
f 1 0 w
h 3 1 e
h 3 0 e
t 2 2 s
t 2 1 n
r 1 0 n
72 44

20 16
3
f 17 8 n
r 5 14 w
h 7 10 s
7 89

13 11
1
t 1 3 e
25 22

20 14
8
t 18 8 e
t 3 0 s
h 13 7 n
h 16 13 w
f 11 12 s
f 9 5 w
h 4 6 e
r 4 11 w
37 31

9 13
8
h 4 0 s
r 7 7 w
f 8 5 e
h 5 2 w
f 0 3 e
f 1 8 e
r 4 7 e
t 6 6 n
56 34

3 5
1
r 0 2 w
61 59

19 5
8
r 9 2 w
r 0 2 w
f 5 1 s
r 9 0 n
f 13 4 e
t 10 2 e
t 5 1 n
t 12 0 w
59 72

3 9
9
r 0 4 s
f 1 8 s
f 1 6 s
r 1 3 e
t 1 2 n
t 0 5 n
h 2 0 s
t 0 8 w
t 2 7 e
70 98

5 5
4
h 0 3 e
r 0 2 n
t 0 3 e
h 0 2 e
13 49

2 6
1
f 0 5 s
92 65

11 14
7
r 6 6 s
f 10 13 n
t 10 12 n
r 1 10 s
f 3 13 w
f 8 3 w
t 7 13 w
46 67

12 19
7
f 5 4 s
r 6 3 n
f 10 6 w
f 4 11 e
t 4 14 s
r 1 7 e
f 11 14 e
87 83

6 13
10
h 0 0 e
t 3 2 w
r 1 4 s
h 1 11 s
r 5 5 e
f 3 4 e
f 3 8 w
h 4 6 s
f 0 11 n
t 3 9 s
24 77

15 4
1
t 7 3 n
31 33

5 14
4
f 2 5 w
r 0 4 e
f 0 3 n
f 2 10 s
12 48

20 10
5
r 6 2 n
r 8 5 n
t 17 9 w
f 0 9 e
h 18 7 w
19 57

2 6
7
f 0 0 s
r 1 5 e
t 1 5 w
f 0 3 n
f 1 4 n
f 1 5 w
h 0 5 s
53 23
